{
    "WFRP4E.system.title" : "Warhammer Fantasy Roleplay 4a Edizione",
    "WFRP4E.system.description" : "Un sistema completo per giocare a 'Un tetro mondo di perigliose avventure' di Warhammer Fantasy Roleplay nella piattaforma Foundry VTT.",

    "SETTINGS.InitRule" : "Regole di Iniziativa",
    "SETTINGS.InitHint" : "Configurare quale metodo è usato per determinare chi muove prima in combattimento.",
    "SETTINGS.InitDefault" : "Default (Dalla più alta alla più bassa Iniziativa, in caso di pareggio Agilità)",
    "SETTINGS.InitSL" : "Tira un test di Iniziativa, l'LS più alto inizia prima",
    "SETTINGS.InitD10" : "Tira un d10 e aggiungi l'Iniziativa, il valore più alto inizia prima",
    "SETTINGS.InitD10Agi" : "Tira un d10, aggiungi i Bonus Iniziativa e Agilità, il valore più alto inizia prima",
    "SETTINGS.CapAdvIB" : "Imposta il valore massimo di Vantaggio come Bonus Iniziativa",
    "SETTINGS.CapAdvIBHint" : "Imposta il valore massimo di Vantaggio come Bonus Iniziativa del personaggio.",
    "SETTINGS.FastSL" : "LS Rapido",
    "SETTINGS.FastSLHint" : "Determinare LS con la regola opzionale: LS Rapido come descritto a pag.152.",
    "SETTINGS.TestsAbove100" : "Test sopra il 100%",
    "SETTINGS.TestsAbove100Hint" : "Usa la regola opzionale: Prove oltre 100% come descritto a pag.151. In caso di successo si ottiene +1 LS per ogni 10 pieno oltre 100%.",
    "SETTINGS.CriticalsFumblesAllTests" : "Critici e Disastri su tutti i Test",
    "SETTINGS.CriticalsFumblesAllTestsHint" : "Lanciare un doppio su qualsiasi test si traduce in un successo/fallimento eccezionale.",
    "SETTINGS.ExtendedTests" : "Prove Prolungate e 0 LS",
    "SETTINGS.ExtendedTestsHint" : "Ottenere +0 o -0 LS in una Prova Prolungata non modifica il totale. Durante una Prova Prolungata ogni successo aggiunge un minimo di +1 LS e un fallimento -1 LS (pag.155).",
    "SETTINGS.TestDialogAutoPopulate" : "Finestra di Dialogo Test con informazioni auto impostate",
    "SETTINGS.TestDialogAutoPopulateHint" : "Questa impostazione inserisce automaticamente le informazioni nella finestra di Dialogo Test. Alcuni esempi includono: se si è in possesso di armi difensive  si riempiono automaticamente 'Bonus LS' nelle finestre di dialogo dei tiri per le armi da mischia. Ciò si verifica solo se non è il turno del personaggio. Anche quando brandisci un'Arma Accurata o Imprecisa (al turno del personaggio).",
    "SETTINGS.TestDialogDefaultDifficulty" : "Difficoltà predefinita del test al di fuori del combattimento",
    "SETTINGS.TestDialogDefaultDifficultyHint" : "Imposta la difficoltà Test predefinita su Media se non c'è combattimento. Al di fuori del combattimento, o se non selezionata, la difficoltà predefinita è Impegnativa. In ogni caso, questo può essere ignorato nella finestra di dialogo.",
    "SETTINGS.NpcAverageChar" : "Imposta le caratteristiche medie dei PNG",
    "SETTINGS.NpcAverageCharHint" : "L'immissione di un valore di specie riconosciuto per un PNG imposta automaticamente le loro caratteristiche sul valore medio per la specie.",
    "SETTINGS.PartialChannelling" : "Canalizzazione Parziale",
    "SETTINGS.PartialChannellingHint" : "Una regola comune che migliora la flessibilità della Canalizzazione. Invece di richiedere all'LS di raggiungere il VL dell'incantesimo, puoi invece lanciare in qualsiasi momento con il VL ridotto dell'LS guadagnato finora.",
    "SETTINGS.RoundSummary" : "Visualizza riepilogo round",
    "SETTINGS.RoundSummaryHint" : "Quando un round finisce, mostra tutti i combattenti con le loro Condizioni.",
    "SETTINGS.StatusTurnStart" : "Mostra lo stato dei combattenti ad inizio turno",
    "SETTINGS.StatusTurnStartHint" : "Quando un Combattente inizia il suo turno, viene mostrato il suo stato (Condizioni e Modificatori). Questo messaggio di stato è identico a quello mostrato facendo clic con il tasto destro del mouse sul combattente.",
    "SETTINGS.FocusTurnStart" : "Quando un round finisce, mostra tutti i combattenti con le loro Condizioni.",
    "SETTINGS.FocusTurnStartHint" : "Quando un round finisce, mostra tutti i combattenti con le loro Condizioni.",
    "SETTINGS.HideTestData" : "Nascondi i dati del test",
    "SETTINGS.HideTestDataHint" : "Le schede nella chat dei test del GM non mostrano ai giocatori dati PNG sensibili.",
    "SETTINGS.ManualChatCards" : "Schede chat manuali",
    "SETTINGS.ManualChatCardsHint" : "Mostra il risultato del tiro vuoto da compilare se si usano dadi fisici.",
    "SETTINGS.PlayerBrowser" : "Accesso del giocatore al browser",
    "SETTINGS.PlayerBrowserHint" : "Consenti ai giocatori di accedere al browser degli oggetti.",
    "SETTINGS.DangerousCrits" : "Ferite Critiche",
    "SETTINGS.DangerousCritsHint" : "Se un personaggio viene ridotto a meno di 0 ferite, se il numero di ferite negative è maggiore del BR del personaggio, si subisce una Ferita Critica.",
    "SETTINGS.DangerousCritsMod" : "Modificatore alle Ferite Critiche",
    "SETTINGS.DangerousCritsModHint" : "L'importo per cui modificare il Colpo Critico.",
    "SETTINGS.WeaponLength" : "Lunghezza dell'arma",
    "SETTINGS.WeaponLengthHint" : "Usa la lunghezza dell'arma per applicare i modificatori come descritto dalla regola a pagina 297.",
    "SETTINGS.SoundEffects" : "Effetti sonori",
    "SETTINGS.SoundEffectsHint" : "Aggiungi effetti sonori al contesto delle varie azioni.",
    "SETTINGS.CustomCursor" : "Cursore di Warhammer",
    "SETTINGS.CustomCursorHint" : "Usa un cursore di Warhammer stilizzato (aggiorna per applicare).",
    "SETTINGS.AutoFillAdv" : "Riempimento automatico di Vantaggio",
    "SETTINGS.AutoFillAdvHint" : "Riempi automaticamente la casella 'modificatore' nella finestra di dialogo di lancio con il bonus dato dal Vantaggio. Disabilitalo se la regola del Vantaggio viene utilizzata in modo diverso.",

    "SHEET.Close" : "Chiudi",
    "SHEET.Configure" : "Configura Scheda",
    "SHEET.Token" : "Configura Token",
    "SHEET.Import" : "Importa",
    "SHEET.Post" : "Pubblica in chat",

    "SHEET.NestedWarning" : "Impossibile aggiungere il contenitore oltre il quarto contenitore nidificato.",
    "SHEET.LocationWarning" : "Rimuovere il contenitore prima di modificarne la posizione",
    "SHEET.SkillMissingWarning" : "Tu non hai questa abilità",
    "SHEET.NonCurrentCareer" : "Non è la tua Carriera corrente",
    "SHEET.AddSkillTitle" : "Aggiungi Abilità di Carriera",
    "SHEET.AddSkillPrompt" : "Vuoi aggiungere questa Abilità?",
    "SHEET.AddTalentTitle" : "Aggiungi Talento di Carriera",
    "SHEET.AddTalentPrompt" : "Vuoi aggiungere questo Talento? (Costa 100 XP)",
    "SHEET.RefundXPTitle" : "Rimborsare PE",
    "SHEET.RefundXPPrompt" : "Vuoi rimborsare l'esperienza?",
    "SHEET.CareerSkill" : "Cambia Abilità di Carriera",
    "SHEET.CareerSkillPrompt" : "Stai cambiando la specializzazione di un'abilità nella tua carriera attuale. Vuoi applicare questa modifica anche alla carriera?",
    "SHEET.MeleeWeaponHeader" : "Arma/i da mischia",
    "SHEET.RangedWeaponHeader" : "Arma/i a distanza",
    "SHEET.ArmourAP" : "PA Armatura",
    "SHEET.ShieldAP" : "PA Scudo",
    "SHEET.TB" : "Bonus Resistenza",
    "SHEET.CreateItem" : "Crea Oggetti",
    "SHEET.PostItem" : "Pubblica Oggetti in chat",
    "SHEET.EditItem" : "Modifica Oggetti",
    "SHEET.Dropdown" : "Dropdown Oggetti",
    "SHEET.DeleteItem" : "Cancella Oggetti",
    "SHEET.RemoveItem" : "Rimuovi Oggetti",
    "SHEET.EncCount" : "Livello d'Ingombro",
    "SHEET.MaxEnc" : "Massimo Ingombro",
    "SHEET.VeryEnc" : "Molto Ingombrante",
    "SHEET.Encumbered" : "Ingombro",
    "SHEET.UnEnc" : "Senza restrizioni: nessun modificatore",
    "SHEET.EncAbbrev" : "Ing.",
    "SHEET.QtyAbbrev" : "Q.tà",
    "SHEET.CountEncOn" : "Clicca per non calcolare l'Ingombro in questo contenitore (Come un Carretto)",
    "SHEET.CountEncOff" : "Clicca per calcolare l'Ingombro in questo contenitore (Come uno Zaino che stai portando)",
    "SHEET.CountEncTT" : "Aggiungi questo ingombro all'ingombro del personaggio (deseleziona se non portato in giro, ad es. un carrello)",
    "SHEET.PettySpell" : "Incantesimo Minore",
    "SHEET.LoreSpell" : "Incantesimo del Sapere",
    "SHEET.CN" : "Valore di Lancio",
    "SHEET.SL" : "Livelli di successo canalizzati",
    "SHEET.CareerToolTip": "Segna una carriera come 'Attuale' per popolare questa zona",
    "SHEET.CharAbbrev": "Carat.",
    "SHEET.AdvAbbrev": "Vant.",
    "SHEET.BonusChar": "Il bonus della caratteristica selezionata viene aggiunto alla valutazione",


    "ACTOR.BasicSkillsTitle" : "Aggiungi Abilità di Base",
    "ACTOR.BasicSkillsPrompt": "Aggiungi Abilità di Base?",
    "ACTOR.PreparationError" : "Si è verificato un errore durante la preparazione dei dati del personaggio: ",
    "ACTOR.CastOrChannel" : "Prova di Lancio o Incanalare",

    "ITEM.PenniesValue" : "Valore (in p)",
    "ITEM.MeleeDamage" : "Danno corpo a corpo",
    "ITEM.RangedDamage" : "Danno a distanza",
    "ITEM.TwoHanded" : "Due Mani",
    "ITEM.WeaponDamaged" : "L'Arma è danneggiata da",
    "ITEM.ShieldDamaged" : "<b>Danneggiato</b> - PA Ridotto da",
    "ITEM.TrappingType" : "Categoria",
    "ITEM.MutationType" : "Tipo di Mutazione",
    "ITEM.CountOwnerEnc" : "Conteggia l'Ingombro del Proprietario?",
    "ITEM.ArmourType" : "Tipo di Armatura",
    "ITEM.AmmunitionType" : "Tipo di Munizioni",
    "ITEM.AmmunitionGroup" : "Gruppo di Munizioni",
    "ITEM.CountEnc" : "Cont. Ing.",
    "ITEM.SkillModifier" : "Modificatore di Abilità?",
    "ITEM.SkillModifierTT" : "Mostra il modificatore nella casella 'Penalità' delle Abilità",
    "ITEM.PrayerType" : "Tipo di Preghiera",
    "ITEM.TalentMax" : "Talento Massimo",
    "ITEM.TalentTests" : "Prova di Talento",
    "ITEM.IsGrouped" : "È Raggruppato",

    "Basic" : "Base",
    "Advanced" : "Avanzata",
    "Qualities" : "Qualità",
    "Flaws" : "Difetti",
    "Location" : "Locazione",
    "Penalty" : "Penalità",
    "Penalties" : "Penalità",
    "Max" : "Massimo",
    "Tests" : "Prova",
    "Specification" : "Specificazione",
    "Price" : "Prezzo",
    "Encumbrance" : "Ingombro",
    "Availability" : "Disponibilità",
    "Special" : "Speciale",
    "Specialization" : "Specializzazione",
    "Reach" : "Portata",
    "Contraction" : "Contagio",
    "Incubation" : "Incubazione",
    "Duration" : "Durata",
    "Symptoms" : "Sintomi",
    "Permanent" : "Permanente",
    "Status" : "Status",
    "Status Tier" : "Livello di Status",
    "Status Standing" : "Status Attuale",
    "Class" : "Classe",
    "Group" : "Gruppo",
    "Personal Details" : "Dettagli Personali",
    "Characteristics" : "Caratteristiche",
    "Characteristic" : "Caratteristica",
    "Main" : "Principale",
    "Skills" : "Abilità",
    "Skill" : "Abilità",
    "Skill Type" : "Tipo di Abilità",
    "Talents": "Talenti",
    "Talent": "Talento",
    "Times Taken": "Times Taken",
    "Combat": "Combattimento",
    "Magic": "Magia",
    "Religion": "Religione",
    "Trappings": "Equipaggiamento",
    "Notes": "Note",
    "Income" : "Reddito",
    "Wounds" : "Ferite",
    "RestRecover" : "Riposa e recupera le ferite",
    "Modifier" : "Modificatore",
    "Modifiers" : "Modificatori",
    "Range" : "Portata",
    "Target" : "Bersaglio",
    "Damage" : "Danno",
    "Ammunition" : "Munizioni",
    "Magic Missile" : "Missile Magico",
    "Lore" : "Sapere",
    "Lore Effect" : "Effetto Del Sapere",
    "CN" : "VL",
    "SL" : "LS",
    "Wearable" : "Indossabile",
    "Choose" : "Scegliere",
    "Roll" : "Tiro",
    "Advantage" : "Vantaggio",
    "None" : "Nessuna",
    "Free" : "Gratuito",
    "Armour" : "Armatura",
    "Mutation" : "Mutazione",
    "Mutations" : "Mutazioni",
    "Injury" : "Lesione",
    "Injuries" : "Lesioni",
    "Criticals" : "Critici",
    "Equipped" : "Fornito",
    "Worn" : "Indossato",
    "Blessing" : "Benedizione",
    "Miracle" : "Miracolo",
    "Physical" : "Fisico",
    "Mental" : "Mentale",
    "Success" : "Successo",
    "Cast" : "Lancio",
    "Channel" : "Incanalare",
    "Test" : "Test",
    "WeaponTest" : "Prova dell'Arma",
    "CastingTest" : "Prova di Lancio",
    "ChannellingTest" : "Prova di Incanalare",
    "PrayerTest" : "Prova di Preghiera",
    "Opposed" : "Contrario",
    "Failure" : "Fallimento",
    "Astounding" : "Incredibile",
    "Impressive" : "Impressionante",
    "Marginal" : "Marginale",
    "Critical" : "Critico",
    "Critical Wound" : "Ferita critica",
    "Critical Wounds" : "Ferite critiche",
    "Experience" : "Esperienza",
    "Spent" : "Spesa",
    "Corruption" : "Corruzione",
    "Fumble" : "Armeggiare",
    "Misfire" : "Cilecca",
    "Unopposed" : "Incontrastato",
    "Head" : "Testa",
    "Body" : "Corpo",
    "Right Arm" : "Braccio Destro",
    "Left Arm" : "Braccio Sinistro",
    "Right Leg" : "Gamba Destra",
    "Left Leg" : "Gamba Sinistra",
    "Arms" : "Braccia",
    "Legs" : "Gambe",
    "Spell" : "Incantesimo",
    "Total" : "Totale",
    "Carries" : "Carico",
    "Memorized" : "Memorizzato",
    "Initial" : "Iniziale",
    "Advances" : "Avanzamenti",
    "Current" : "Attuale",
    "Complete" : "Completo",
    "Movement" : "Movimento",
    "Move" : "Mossa",
    "Walk" : "Camminata",
    "Run" : "Corsa",
    "Fortune" : "Fortuna",
    "Fate" : "Fato",
    "Resolve" : "Risolutezza",
    "Resilience" : "Resilienza",
    "Career" : "Carriera",
    "Level" : "Livello",
    "Biography" : "Biografia",
    "Personal Ambitions" : "Ambizioni Personali",
    "Party Ambitions" : "Ambizioni del Gruppo",
    "Short Term" : "Breve Termine",
    "Long Term" : "Lungo Termine",
    "Motivation" : "Motivazione",
    "Psychology" : "Psicologia",
    "Disease" : "Malattia",
    "Diseases" : "Malattie",
    "GM Notes" : "Note del GM",
    "Blessed By" : "Benedetto da",
    "Sin" : "Peccato",
    "Species" : "Specie",
    "Gender" : "Razza",
    "Career Level" : "Livello di Carriera",
    "Career Group" : "Gruppo di Carriera",
    "Career Class" : "Classe",
    "Career Tier" : "Sentiero",
    "Earning Skill" : "Guadagnare Abilità",
    "Age" : "Età",
    "Height" : "Altezza",
    "Weight" : "Peso",
    "Hair Colour" : "Capelli",
    "Eye Colour" : "Occhi",
    "Distinguishing Mark" : "Segni Particolari",
    "Star Sign" : "Segno Zodiacale",
    "Basic Skills" : "Abilità Base",
    "Grouped & Advanced Skills" : "Abilità Avanzate e di Gruppo",
    "Creature Traits" : "Tratti delle Creature",
    "Creature Trait" : "Tratto della Creatura",
    "Creature Overview" : "Panoramica della Creatura",
    "Trained Skills" : "Abilità Conosciute",
    "Traits" : "Tratti",
    "Randomize Attributes" : "Attributi Casuali",
    "Character Name" : "Nome del personaggio",
    "Extra" : "Aggiuntivo",
    "Exp" : "Esperienza",
    "Details" : "Dettagli",
    "Attributes" : "Attributi",
    "Reroll" : "Ritirare",
    "Description" : "Descrizione",
    "Overcast" : "Eccesso di Lancio",
    "Other" : "Altro",
    "Category" : "Categoria",
    "God" : "Divinità",
    "AoE" : "AdE",
    "Radius" : "Raggio",
    "Extendable Duration" : "Durata Estendibile",
    "Rollable" : "Tirabile",
    "Roll Characteristics" : "Caratteristiche di Tiro",
    "Bonus Characteristic" : "Bonus Caratteristica",
    "Weapon Group" : "Gruppo Arma",
    "Type" : "Tipo",
    "Container" : "Contenitore",
    "Money" : "Soldi",
    "Prayer" : "Preghiera",
    "Trait" : "Tratto",
    "Protects" : "Proteggere",
    "AllowXPSpending" : "Forzare Indicatore d'Avanzamento",
    "TooltipAllowXPSpending" : "Mostra l'indicatore di avanzamento indipendentemente dalla carriera, che ti consentirà di automatizzare l'esperienza spesa.",

    "BROWSER.ItemCategories" : "Categorie di Articoli",
    "BROWSER.IncludeWorld" : "Includere oggetti del mondo?",
    "BROWSER.FilterOptions" : "Opzioni Filtro",
    "BROWSER.ModifiesDamage" : "Modifica i danni",
    "BROWSER.ModifiesRange" : "Modifica la portata",
    "BROWSER.ItemList" : "Lista articoli",

    "CHARGEN.AttrInstructions1" : "Trascina questa carta sul tuo foglio. Puoi riorganizzare i numeri al costo di 25 PE. Oppure, se lo desideri",
    "CHARGEN.AttrInstructions2" : "o assegnare punti, sottrarre 50 PE.",
    "CHARGEN.CareerAdvancement" : "Avanzamento di carriera",
    "CHARGEN.CareerInstructions" : "Trascina la carriera sulla scheda del personaggio e assegna 40 avanzamenti alle abilità disponibili. Inoltre, aggiungi 1 talento e assegna 5 avanzamenti tra le caratteristiche contrassegnate. Questi progressi non costano esperienza, quindi evita di fare clic sui pulsanti di avanzamento.",
    "CHARGEN.ClassTrappings" : "Equipaggiamento di Classe",
    "CHARGEN.ChooseCareer" : "Scegli Carriera",
    "CHARGEN.RerollCareer" : "Ritira la Carriera",
    "CHARGEN.SpeciesInstructions" : "Scegli 6 abilità e trascinale sulla scheda del tuo personaggio se non sono già incluse. Metti 5 avanzamenti in 3 di essi e 3 avanzamenti nelgli altri 3. Questi non costano esperienza, quindi evita di fare clic sui pulsanti di avanzamento.",
    "CHARGEN.RerollInstructions" : "Puoi ritirare qualsiasi talento doppio.",
    "CHARGEN.Or" : "OR",

    "DIALOG.CastChannel" : "Lanciare o incanalare questo incantesimo?",
    "DIALOG.ChannelSkill" : "Abilità di incanalare",
    "DIALOG.MalignantInf" : "Influenza maligna",
    "DIALOG.MalignantInfTT" : "Lancio sbagliato sui tiri delle unità che includono 8",
    "DIALOG.DeleteItem" : "Sei sicuro di voler eliminare questo articolo?",
    "DIALOG.SLBonus" : "Bonus LS",
    "DIALOG.SuccessBonus" : "Bonus di successo",
    "DIALOG.TalentBonus" : "Bonus talento",
    "DIALOG.SLBonusTT" : "LS che viene sempre aggiunto o sottratto (ad es.Difensivo)",
    "DIALOG.SuccessBonusTT" : "LS applicato solo in caso di successo (ad es. Talenti)",
    "DIALOG.TalentBonusTT" : "Elenco dei potenziali bonus di talento",
    "DIALOG.RollMode" : "Modalità di Tiro",
    "DIALOG.Extensions" : "Estensioni",
    "DIALOG.CastSkill" : "Abilità di lancio",
    "DIALOG.HitLocation" : "Includere un tiro sulla tabella delle posizioni dei colpi",
    "DIALOG.TableModifier" : "Modificatore di tabella",
    "DIALOG.Min1" : "Minimo 1",
    "DIALOG.TableLookup" : "Ricerca tabella",

    "CHAT.CareerChoose" : "Scegli la tua Carriera",
    "CHAT.DamageError" : "Errore nel calcolo del danno:",
    "CHAT.DamageAppliedError" : "Nessun valore di danno. Assicurati che l'attaccante stia usando un oggetto che causa danni, come un'arma.",
    "CHAT.DamageAppliedErrorTiring" : "Non è possibile automatizzare il danno (probabilmente a causa di Stanchezza o l'arma/il tratto non è impostato correttamente)",
    "CHAT.DamageApplied" : "Danno applicato",
    "CHAT.DamageShield" : "Scudo",
    "CHAT.CriticalsNullified" : "Critici annullati",
    "CHAT.DamageAP" : "Danneggia 1 PA",
    "CHAT.ScatterNote" : "Nota: la distanza non può essere superiore alla metà della distanza tra te e il bersaglio",
    "CHAT.ScatterYou" : "Ai tuoi piedi",
    "CHAT.ScatterThem" : "Ai suoi piedi",
    "CHAT.ChooseFrom" : "Scegli da",
    "CHAT.MustChoose" : "Deve scegliere",
    "CHAT.CritCast" : "Se l'incantesimo causa danni, infligge a",
    "CHAT.TotalPower" : "L'incantesimo viene lanciato, indipendentemente dal suo VL e dal risultato di LS, ma può essere dissolto",
    "CHAT.UnstoppableForce" : "Se l'incantesimo viene lanciato con successo, non può essere dissolto.",
    "CHAT.ColumnPrompt" : "Seleziona una colonna su cui scorrere",
    "CHAT.CriticalWoundsApplied" : "Ferite applicate a",
    "CHAT.OpposedWonAgainst" : "vinto contro",
    "CHAT.By" : "di",
    "CHAT.ContextualMenu" : "Su questa scheda potrebbe essere disponibile un menu contestuale (click destro)",
    "CHAT.EditTest" : "Modifica test",
    "CHAT.OpposedTest" : "Test opposti",
    "CHAT.TestModifiers.WeaponLength" : "-10 Penalità a <b>{attacker}</b> per avere l'arma più corta.",
    "CHAT.TestModifiers.FastWeapon" : "-10 Penalità a <b>{defender}</b> per essersi difeso da un'arma veloce.",
    "CHAT.TestModifiers.DefendingLarger" : "{sl}Penalità LS a <b>{defender}</b> per aver parato una creatura più grande.",
    "CHAT.TestModifiers.AttackingLarger" : "+10 Dono a <b>{attacker}</b> per aver attaccato una creatura più grande.",
    "CHAT.TestModifiers.ShootingLarger" : "+{bonus} Dono a <b>{attacker}</b> per aver sparato a un bersaglio più grande.",
    "CHAT.TestModifiers.FinalModifiersTitle": "<b>Modificatori Finali</b>:",
    "CHAT.TestModifiers.FinalModifiers": "{target} Bersaglio, {sl}LS a <b>{name}</b>",
    "CHAT.CommandLine.Help.Commands" : "Tabelle, Condizioni, Generazione carattere, Generazione nome, Test disponibilità, Pagamento, Credito",
    "CHAT.CommandLine.Help.Label.Command" : "Comando",
    "CHAT.CommandLine.Help.Label.Example": "Esempio",
    "CHAT.CommandLine.Help.Label.Note": "Nota",
    "CHAT.CommandLine.Help.Tables.Title" : "Tabelle",
    "CHAT.CommandLine.Help.Tables.Usage.Command" : "/table <table-name> <column> <modifier>",
    "CHAT.CommandLine.Help.Tables.Usage.Example" : "<br>/table critarm +20<br>/table carriera umano",
    "CHAT.CommandLine.Help.Tables.Usage.Note" : "/table <anything-unrecognized> aprirà il menu della guida della tabella",
    "CHAT.CommandLine.Help.Conditions.Title" : "Condizioni",
    "CHAT.CommandLine.Help.Conditions.Usage.Command" : "/cond <condition-name>",
    "CHAT.CommandLine.Help.Conditions.Usage.Example" : "<br>/cond ablaze<br>/cond privo di sensi",
    "CHAT.CommandLine.Help.Conditions.Usage.Note" : "corrisponderà alla condizione di ortografia più vicina e la visualizzerà (es. / cond abl == / cond ablaze)",
    "CHAT.CommandLine.Help.CharacterGeneration.Title" : "Generazione del personaggio",
    "CHAT.CommandLine.Help.CharacterGeneration.Usage.Command" : "/char",
    "CHAT.CommandLine.Help.CharacterGeneration.Usage.Example" : "/char",
    "CHAT.CommandLine.Help.CharacterGeneration.Usage.Note" : "Inizia la generazione del personaggio",
    "CHAT.CommandLine.Help.NameGeneration.Title" : "Generatore di nomi",
    "CHAT.CommandLine.Help.NameGeneration.Usage.Command" : "/name",
    "CHAT.CommandLine.Help.NameGeneration.Usage.Example" : "<br>/name dwarf<br>/name helf male<br>/name welf female",
    "CHAT.CommandLine.Help.NameGeneration.Usage.Note" : "Genera un nome in chat (accessibile anche facendo clic sull'etichetta <Nome> su un PNG o una scheda creatura)",
    "CHAT.CommandLine.Help.AvailabilityTest.Title" : "Test di disponibilità",
    "CHAT.CommandLine.Help.AvailabilityTest.Usage.Command" : "/avail",
    "CHAT.CommandLine.Help.AvailabilityTest.Usage.Example" : "<br>/avail town common<br>/avail city exotic",
    "CHAT.CommandLine.Help.AvailabilityTest.Usage.Note" : "esegue un test di disponibilità per determinare la disponibilità e lo stock di un articolo.",
    "CHAT.CommandLine.Help.Pay.Title" : "pagare",
    "CHAT.CommandLine.Help.Pay.Usage.Command" : "/pay",
    "CHAT.CommandLine.Help.Pay.Usage.Example" : "<br>/pay 3gc2bp<br>/pay 10bp450ss",
    "CHAT.CommandLine.Help.Pay.Usage.Note" : "Se questo comando viene inviato dal GM, creerà invece una chat card in cui ai giocatori viene offerto di pagare per l'importo inserito dal GM.",
    "CHAT.CommandLine.Help.Credit.Title" : "Credito",
    "CHAT.CommandLine.Help.Credit.Usage.Command" : "/credit",
    "CHAT.CommandLine.Help.Credit.Usage.Example" : "<br>/credit 3gc2bp<br>/credit 10bp450ss each",
    "CHAT.CommandLine.Help.Credit.Usage.Note" : "Questo comando è solo per il GM. Una quantità di denaro inserita dal GM verrà divisa tra i giocatori (modalità divisa, modalità predefinita) o ciascuno dei giocatori riceverà i soldi (ciascuna modalità).",
    "CHAT.CommandLine.Help.Link" : "Consulta il <a href={link}> Wiki </a> per ulteriori informazioni sulle funzionalità di questo sistema",

    "Error.SpeciesSkills" : "Impossibile aggiungere abilità per le specie",
    "Error.SpeciesTalents" : "Impossibile aggiungere talenti per le specie",
    "Error.CriticalWound" : "Errore durante l'applicazione del valore delle ferite",
    "Error.DamageCalc" : "Errore nel calcolo del danno",
    "Error.Opposed" : "Impossibile completare il test opposto",
    "Error.MacroItemMissing" : "Il tuo attore controllato non ha un oggetto denominato",
    "Error.NoAmmo" : "Niente munizioni!",

    "INCOME.YouEarn" : "Tu guadagni",
    "INCOME.Failure" : "Hai avuto una ottimana molto brutta e non guadagni nulla (o ti hanno rubato i soldi o qualche incidente simile).",

    "ROLL.CastingSuccess" : "Lancio con Successo",
    "ROLL.CastingFailed" : "Lancio Fallito",
    "ROLL.ChannelFailed" : "Incanalare Fallito",
    "ROLL.ChannelSuccess" : "Incanalare con Successo",
    "ROLL.TotalPower" : "Potere totale",
    "ROLL.UnstoppableForce" : "Forza inarrestabile",
    "ROLL.CritCast" : "Lancio Critico",
    "ROLL.CritChannel" : "Incanalare Critico",
    "ROLL.MinorMis" : "Errore di lancio Minore",
    "ROLL.MajorMis" : "Errore di lancio Maggiore",
    "ROLL.PrayRefused" : "Preghiera rifiutata",
    "ROLL.PrayGranted" : "Preghiera concessa",
    "ROLL.Wrath" : "Ira degli dei",
    "ROLL.CancelOppose" : "Test Contrapposto annullato",
    "ROLL.HitLocation" : "Zona Colpita",
    "ROLL.OpposedStart" : "ha iniziato un test contrapposto!",
    "ROLL.Targeting" : "sta prendendo la mira",
    "ROLL.MisfireText1" : "La tua arma esplode! Prendi",
    "ROLL.MisfireText2" : "danno al tuo braccio principale.",

    "WFRP4E.Reach.Personal" : "Personale",
    "WFRP4E.Reach.VShort" : "Molto Corta",
    "WFRP4E.Reach.Short" : "Corta",
    "WFRP4E.Reach.Average" : "Media",
    "WFRP4E.Reach.Long" : "Lunga",
    "WFRP4E.Reach.VLong" : "Molto Lunga",
    "WFRP4E.Reach.Massive" : "Enorme",

    "WFRP4E.ArmourType.SLeather" : "Cuoio Morbido",
    "WFRP4E.ArmourType.BLeather" : "Cuoio Bollito",
    "WFRP4E.ArmourType.Mail" : "Maglia",
    "WFRP4E.ArmourType.Plate" : "Piastre",
    "WFRP4E.ArmourType.Other" : "Altro",

    "WFRP4E.Availability.Common" : "Comune",
    "WFRP4E.Availability.Scarce" : "Scarso",
    "WFRP4E.Availability.Rare" : "Raro",
    "WFRP4E.Availability.Exotic" : "Esotico",

    "MARKET.Village" : "Villaggio",
    "MARKET.Town" : "Paese",
    "MARKET.City" : "Città",
    "MARKET.AvailabilityTest" : "Test di disponibilità",
    "MARKET.AvailWrongCommand": "Parametri sbagliati. Parametri attesi: <br> Dimensione dell'insediamento [Villaggio, Città, Città] <br> Rarità [Comune, Scarsa, Rara, Esotica] <br> (opz.) Modificatore al tiro",
    "MARKET.AvailCommandExample": "Esempio: /avail villaggio raro 10",
    "MARKET.SettlementSize" : "Tipo di insediamento:",
    "MARKET.Rarity" : "Rarità:",
    "MARKET.InStock": "Disponibile:",
    "MARKET.QuantityAvailable": "Quantità disponibile:",
    "MARKET.RollForAvailability" : "Tiro per disponibilità",
    "MARKET.SelectSettlementSize" : "Seleziona la dimensione dell'insediamento:",
    "MARKET.PayForItem" : "pagare",
    "MARKET.ReceiveCredit" : "Ricevere",
    "MARKET.Exchange" : "Unifica (Minor numero di monete)",
    "MARKET.Abbrev.GC" : "CO",
    "MARKET.Abbrev.SS" : "S",
    "MARKET.Abbrev.BP" : "P",
    "MARKET.PayCommand" : "Risposta di pagamento",
    "MARKET.PayRequest" : "Richiesta di pagamento",
    "MARKET.CreditCommand" : "Risposta di credito",
    "MARKET.CreditRequest" : "Richiesta di credito",
    "MARKET.CreditCommandNotAllowed" : "Solo i GM possono usare questo comando.",
    "MARKET.PaidBy" : "Pagato da:",
    "MARKET.ReceivedBy" : "Ricevuto da:",
    "MARKET.MoneyTransactionWrongCommand" : "Sintassi sbagliata. Si prega di formattare il comando come nei seguenti esempi:",
    "MARKET.PayCommandExample" : "/pay 3co2p<br>/pay 450p<br>/pay 2s12p4co",
    "MARKET.CreditCommandExample" : "/credit 3co2p<br>/credit 450p circa<br>/credit 2s12p4co suddiviso",
    "MARKET.CantFindMoneyItems" : "Errore. Non riesco a trovare gli oggetti denaro (CO / P / S) nell'inventario del personaggio.",
    "MARKET.NotEnoughMoney" : "Questo personaggio non ha abbastanza soldi per pagarlo.<br>",
    "MARKET.MoneyNeeded" : "Soldi necessari:",
    "MARKET.MoneyAvailable": "Denaro disponibile:",
    "MARKET.Paid": "<b>Pagamento completato:</b> {number1} CO {number2} S {number3} P",
    "MARKET.Credit": "<b>Credito completato:</b> {number1} CO {number2} S {number3} P",
    "MARKET.RequestMessageForSplitCredit": "La quantità di denaro {initialAmount} verrà condivisa tra i giocatori di {activePlayerNumber} per un risultato di:",
    "MARKET.RequestMessageForEachCredit": "L'importo totale del denaro {initialAmount} verrà assegnato a ciascuno dei giocatori {activePlayerNumber} per un risultato di:",
    "MARKET.NoPlayers": "Nessun giocatore attivo nella sessione di gioco.",
    "MARKET.NoMatchingPlayer": "Nessun nome giocatore corrispondente trovato.",    
    "MARKET.CreditToUser": "L'importo di denaro {initialAmount} viene inviato all'utente {userName}.",

    "WFRP4E.TrappingType.Weapon" : "Armi",
    "WFRP4E.TrappingType.Armour" : "Armature",
    "WFRP4E.TrappingType.Money" : "Soldi",
    "WFRP4E.TrappingType.Ammunition" : "Munizioni",
    "WFRP4E.TrappingType.Container" : "Contenitori",
    "WFRP4E.TrappingType.ClothingAccessories" : "Abiti e Accessori",
    "WFRP4E.TrappingType.FoodDrink" : "Cibo e bevande",
    "WFRP4E.TrappingType.ToolsKits" : "Strumenti e Kit",
    "WFRP4E.TrappingType.BooksDocuments" : "Libri e Documenti",
    "WFRP4E.TrappingType.TradeTools" : "Arnesi del Mestiere e Laboratori",
    "WFRP4E.TrappingType.DrugsPoisonsHerbsDraughts" : "Droghe, Veleni, Erbe e Infusi",
    "WFRP4E.TrappingType.Ingredient" : "Ingrediente",
    "WFRP4E.TrappingType.Ingredients" : "Ingredienti",
    "WFRP4E.TrappingType.Misc" : "Oggetti Vari",

    "WFRP4E.EncumbrancePenalties.Encumbered" : "–1 Movimento (minimo 3), –10 Agilità, +1 Affaticato",
    "WFRP4E.EncumbrancePenalties.VeryEnc" : "–2 Movimento (minimo 2), –20 Agilità (minimo 10), +2 Affaticato",
    "WFRP4E.EncumbrancePenalties.MaxEnc" : "Immobilizzato",

    "WFRP4E.ConditionName.Ablaze" : "In Fiamme",
    "WFRP4E.ConditionName.Bleeding" : "Sanguinante",
    "WFRP4E.ConditionName.Blinded" : "Accecato",
    "WFRP4E.ConditionName.Broken" : "Atterrito",
    "WFRP4E.ConditionName.Deafened" : "Assordato",
    "WFRP4E.ConditionName.Entangled" : "Afferrato",
    "WFRP4E.ConditionName.Fatigued" : "Affaticato",
    "WFRP4E.ConditionName.Poisoned" : "Avvelenato",
    "WFRP4E.ConditionName.Prone" : "Prono",
    "WFRP4E.ConditionName.Stunned" : "Stordito",
    "WFRP4E.ConditionName.Surprised" : "Sorpreso",
    "WFRP4E.ConditionName.Unconscious" : "Privo di Sensi",
    "WFRP4E.ConditionName.Grappling" : "Lotta",
    "WFRP4E.ConditionName.Fear" : "Paura",
    "WFRP4E.ConditionName.Defeated" : "Sconfitta",

    "Wounds Healed" : "Ferite Guarite",
    "ITEM.LoreEffectPlaceholder" : "Ignora l'effetto del Sapere predefinito",
    "ITEM.ChannelOverride" : "Ignora canalizzazione",
    "ITEM.ChannelPlaceholder" : "Ignora l'abilità di Canalizzazione predefinita da utilizzare.",
    "ITEM.DefaultDifficulty" : "Difficoltà predefinita.",

    "CHAR.WS": "Abilità di Combattimento",
	"CHAR.BS": "Abilità Balistica",
	"CHAR.S": "Forza",
	"CHAR.T": "Resistenza",
	"CHAR.I": "Iniziativa",
	"CHAR.Ag": "Agilità",
	"CHAR.Dex": "Destrezza",
	"CHAR.Int": "Intelligenza",
	"CHAR.WP": "Volontà",
    "CHAR.Fel": "Socialità",

    "CHARAbbrev.WS": "AC",
	"CHARAbbrev.BS": "AB",
	"CHARAbbrev.S": "F",
	"CHARAbbrev.T": "R",
	"CHARAbbrev.I": "I",
	"CHARAbbrev.Ag": "Agi",
	"CHARAbbrev.Dex": "Des",
	"CHARAbbrev.Int": "Int",
	"CHARAbbrev.WP": "Vol",
    "CHARAbbrev.Fel": "Soc",


    "CHARBonus.WS": "Bonus Abilità di Combattimento",
	"CHARBonus.BS": "Bonus Abilità Balistica",
	"CHARBonus.S": "Bonus Forza",
	"CHARBonus.T": "Bonus Resistenza",
	"CHARBonus.I": "Bonus Iniziativa",
	"CHARBonus.Ag": "Bonus Agilità",
	"CHARBonus.Dex": "Bonus Destrezza",
	"CHARBonus.Int": "Bonus Intelligenza",
	"CHARBonus.WP": "Bonus Volontà",
    "CHARBonus.Fel": "Bonus Socialità",
    "Bonus" : "Bonus",

    "NAME.Armour" : "Armatura",
    "NAME.Hardy" : "Ardito",
    "NAME.Small" : "Piccolo",
    "NAME.Mindless" : "Insensato",
    "NAME.Construct" : "Costruire",
    "NAME.Swarm" : "Sciame",
    "NAME.Size" : "Taglia",
    "SPEC.Tiny" : "Minuscola",
    "SPEC.Little" : "Minuta",
    "SPEC.Small" : "Piccola",
    "SPEC.Average" : "Media",
    "SPEC.Large" : "Grande",
    "SPEC.Enormous" : "Enorme",
    "SPEC.Monstrous" : "Mostruosa",

    "NAME.BP" : "Penny d'ottone",
    "NAME.SS" : "Scellino d'argento",
    "NAME.GC" : "Corona d'oro",

    "NAME.BPPlural" : "Penny d'ottone",
    "NAME.SSPlural" : "Scellini d'argento",
    "NAME.GCPlural" : "Corone d'oro",

    "TIER.Gold" : "Oro",
    "TIER.Silver" : "Argento",
    "TIER.Brass" : "Bronzo",

    "NAME.Pray" : "Pregare",
    "NAME.Language" : "Linguaggio",
    "SPEC.Magick" : "Magia",
    "NAME.Channelling" : "Canalizzazione",
    "NAME.Melee" : "Mischia",
    "NAME.Ranged" : "Distanza",
    "NAME.Endurance" : "Resistenza",
    "NAME.Dodge" : "Schivare",
    "NAME.Stride" : "Passo",
    "NAME.Unarmed" : "Disarmato",
    "NAME.Stomp" : "Calpestare",
    "NAME.Improvised" : "Arma Improvvisata",
    "NAME.ID" : "Dizione Istintiva",
    "NAME.AA" : "Sintonia Aethyrica",
    "NAME.SMB" : "Colpo Poderoso",
    "NAME.AS" : "Tiro Accurato",
    "NAME.Robust" : "Robusto",
    "NAME.PS" : "Anima Pura",
    "NAME.StrongBack" : "Spalle Forti",
    "NAME.Sturdy" : "Vigoroso",
    "NAME.ConsumeAlcohol" : "Bere Alcolici",
    "NAME.Stealth" : "Invisibile",
    "NAME.PickLock" : "Scassinare",
    "NAME.Champion" : "Campione",
    "NAME.Riposte" : "Replicare",

    "SPEC.Basic" : "Armi Base",
    "SPEC.Cavalry" : "Armi da Cavalleria",
    "SPEC.Fencing" : "Scherma",
    "SPEC.Brawling" : "Mani Nude",
    "SPEC.Flail" : "Flagelli",
    "SPEC.Parry" : "Armi Difensive",
    "SPEC.Polearm" : "Armi in Asta",
    "SPEC.TwoHanded" : "Armi a Due Mani",
    "SPEC.Blackpowder" : "Armi da Fuoco",
    "SPEC.Bow" : "Archi",
    "SPEC.Crossbow" : "Balestre",
    "SPEC.Entangling" : "Armi Intralcianti",
    "SPEC.Engineering" : "Armi Sperimentali",
    "SPEC.Explosives" : "Armi Esplosive",
    "SPEC.Sling" : "Frombole",
    "SPEC.Throwing" : "Armi da Lancio",

    "SHEET.DupPrompt" : "Vuoi duplicare questo oggetto?",
    "SHEET.DupTitle" : "Duplica oggetto",

    "PROPERTY.Accurate": "Accurata",
    "PROPERTY.Blackpowder": "Polvere Nera",
    "PROPERTY.Blast": "Esplosione",
    "PROPERTY.Damaging": "Dannosa",
    "PROPERTY.Defensive": "Difensiva",
    "PROPERTY.Distract": "Distraente",
    "PROPERTY.Entangle": "Intrappolante",
    "PROPERTY.Fast": "Rapida",
    "PROPERTY.Hack": "Mozzare",
    "PROPERTY.Impact": "Impatto",
    "PROPERTY.Impale": "Trafiggere",
    "PROPERTY.Penetrating": "Penetrante",
    "PROPERTY.Pistol": "Pistola",
    "PROPERTY.Precise": "Precisa",
    "PROPERTY.Pummel": "Percuotere",
    "PROPERTY.Repeater": "Ripetizione",
    "PROPERTY.Shield": "Scudo",
    "PROPERTY.TrapBlade": "Intrappola-Lama",
    "PROPERTY.Unbreakable": "Infrangibile",
    "PROPERTY.Wrap": "Avvolgente",
    "PROPERTY.Dangerous": "Pericolosa",
    "PROPERTY.Imprecise": "Imprecisa",
    "PROPERTY.Reload": "Ricarica",
    "PROPERTY.Slow": "Lenta",
    "PROPERTY.Tiring": "Faticosa",
    "PROPERTY.Undamaging": "Inoffensiva",
    "PROPERTY.Ugly": "Brutto",
    "PROPERTY.Shoddy": "Scadente",
    "PROPERTY.Unreliable": "Inaffidabile",
    "PROPERTY.Bulky": "Voluminoso",
    "PROPERTY.Durable": "Durevole",
    "PROPERTY.Fine": "Bello",
    "PROPERTY.Lightweight": "Leggero",
    "PROPERTY.Practical": "Pratico",

    "PROPERTY.Flexible" : "Flessibile",
    "PROPERTY.Impenetrable" : "Impenetrabile",
    "PROPERTY.Partial" : "Parziale",
    "PROPERTY.Weakpoints" : "Punto Debole",

    "WFRP4E.BPandEng" : "Armi da Fuoco e Armi Sperimentali",
    "WFRP4E.Bow" : "Archi",
    "WFRP4E.Crossbow" : "Balestre",
    "WFRP4E.Sling" : "Frombole",

    "ITEM.IsSpec" : "Hai la specializzazione",
    "ITEM.NoSpec" : "Nessuna specializzazione",

    "Instant" : "Immediato",

    "AP" : "PA",
    "Scatter" : "Seminare",
    "yard" : "metro",
    "yards" : "metri",
    "Ammo" : "Muniz.",
    "yds" : "mt.",

    "NAME.CombatReflexes" : "Riflessi di combattimento",
    "FORTUNE.Use" : "Punto Fortuna utilizzato",
    "FORTUNE.UsageRerollText" : "{carattere} ha utilizzato un punto Fortuna per ripetere un test fallito.",
    "FORTUNE.PointsRemaining" : "Punti fortuna rimanenti:",
    "FORTUNE.UsageAddSLText" : "{character} ha utilizzato un punto Fortuna per aggiungere +1 LS. Il test è stato aggiornato.",
    "DARKDEAL.Use" : "Accetta un Patto Oscuro",
    "DARKDEAL.UsageText" : "{character} ha preso un Patto Oscuro e gli è stato concesso un rilancio per +1 alla corruzione.",

    "OPPOSED.DefenderWins" : "<b>{defender}</b> vince contro <b>{attacker}</b> di {SL} LS",
    "OPPOSED.AttackerWins" : "<b>{attacker}</b> vince contro <b>{defender}</b> di {SL} LS",
    "ROLL.Misfire" : "<b>Cilecca:</b> la tua arma esplode! Subisci {damage} danni al tuo braccio principale.",
    "OPPOSED.FailedRanged" : "<b>Test non riuscito</b>: perde automaticamente i test contrapposti",

    "CHATOPT.ApplyDamage": "Applicare danni",
    "CHATOPT.ApplyDamageNoAP": "Applicare danni (Ignora PA)",
    "CHATOPT.ApplyDamageNoTB": "Applicare danni (Ignora BR)",
    "CHATOPT.ApplyDamageNoTBAP": "Applicare danni (Ignora BR e PA)",
    "CHATOPT.UseFortuneReroll":"Usa un punto Fortuna per ripetere il tiro",
    "CHATOPT.UseFortuneSL":"Usa un punto Fortuna per aumentare di +1 LS",
    "CHATOPT.DarkDeal": "Accetta un Patto Oscuro per ritirare (+1 Corruzione)"
}
